<svg width="17" height="20" viewBox="0 0 17 20" fill="none" xmlns="http://www.w3.org/2000/svg">
<path fill-rule="evenodd" clip-rule="evenodd" d="M8.55533 0.950592H2.85177C1.80178 0.950592 0.950592 1.80178 0.950592 2.85177V13.3083C0.950592 14.3583 1.80178 15.2095 2.85177 15.2095L3.80236 15.2095V14.2589C3.80236 13.2089 4.65355 12.3577 5.70354 12.3577C6.75353 12.3577 7.60472 13.2089 7.60472 14.2589V15.2095L8.55532 15.2095C9.60532 15.2095 10.4565 14.3583 10.4565 13.3083V2.85177C10.4565 1.80178 9.60532 0.950592 8.55533 0.950592ZM6.65413 15.2095L6.65413 14.2589C6.65413 13.7339 6.22854 13.3083 5.70354 13.3083C5.17854 13.3083 4.75295 13.7339 4.75295 14.2589L4.75294 16.1601H2.85177C1.27678 16.1601 0 14.8833 0 13.3083V2.85177C0 1.27678 1.27678 0 2.85177 0H8.55533C10.1303 0 11.4071 1.27678 11.4071 2.85177V13.3083C11.4071 14.8833 10.1303 16.1601 8.55532 16.1601H6.65413V15.2095ZM1.90116 3.32706C1.90116 3.06457 2.11396 2.85177 2.37646 2.85177H3.32705C3.58955 2.85177 3.80234 3.06457 3.80234 3.32706C3.80234 3.58956 3.58955 3.80236 3.32705 3.80236H2.37646C2.11396 3.80236 1.90116 3.58956 1.90116 3.32706ZM1.90116 5.22825C1.90116 4.96575 2.11396 4.75295 2.37646 4.75295H3.32705C3.58955 4.75295 3.80234 4.96575 3.80234 5.22825C3.80234 5.49075 3.58955 5.70355 3.32705 5.70355H2.37646C2.11396 5.70355 1.90116 5.49075 1.90116 5.22825ZM2.37646 6.65414C2.11396 6.65414 1.90116 6.86694 1.90116 7.12944C1.90116 7.39193 2.11396 7.60473 2.37646 7.60473H3.32705C3.58955 7.60473 3.80234 7.39193 3.80234 7.12944C3.80234 6.86694 3.58955 6.65414 3.32705 6.65414H2.37646ZM4.75294 3.32706C4.75294 3.06457 4.96574 2.85177 5.22824 2.85177H6.17883C6.44133 2.85177 6.65413 3.06457 6.65413 3.32706C6.65413 3.58956 6.44133 3.80236 6.17883 3.80236H5.22824C4.96574 3.80236 4.75294 3.58956 4.75294 3.32706ZM5.22824 4.75295C4.96574 4.75295 4.75294 4.96575 4.75294 5.22825C4.75294 5.49075 4.96574 5.70355 5.22824 5.70355H6.17883C6.44133 5.70355 6.65413 5.49075 6.65413 5.22825C6.65413 4.96575 6.44133 4.75295 6.17883 4.75295H5.22824ZM4.75294 7.12944C4.75294 6.86694 4.96574 6.65414 5.22824 6.65414H6.17883C6.44133 6.65414 6.65413 6.86694 6.65413 7.12944C6.65413 7.39193 6.44133 7.60473 6.17883 7.60473H5.22824C4.96574 7.60473 4.75294 7.39193 4.75294 7.12944ZM8.08001 2.85177C7.81751 2.85177 7.60471 3.06457 7.60471 3.32706C7.60471 3.58956 7.81751 3.80236 8.08001 3.80236H9.0306C9.2931 3.80236 9.50589 3.58956 9.50589 3.32706C9.50589 3.06457 9.2931 2.85177 9.0306 2.85177H8.08001ZM7.60471 5.22825C7.60471 4.96575 7.81751 4.75295 8.08001 4.75295H9.0306C9.2931 4.75295 9.50589 4.96575 9.50589 5.22825C9.50589 5.49075 9.2931 5.70355 9.0306 5.70355H8.08001C7.81751 5.70355 7.60471 5.49075 7.60471 5.22825ZM8.08 6.65414C7.8175 6.65414 7.60471 6.86694 7.60471 7.12944C7.60471 7.39194 7.8175 7.60474 8.08 7.60474H9.03059C9.29309 7.60474 9.50589 7.39194 9.50589 7.12944C9.50589 6.86694 9.29309 6.65414 9.03059 6.65414H8.08ZM12.5585 8.88431C12.5585 8.62181 12.7713 8.40901 13.0338 8.40901H13.9844C14.2469 8.40901 14.4597 8.62181 14.4597 8.88431C14.4597 9.14681 14.2469 9.3596 13.9844 9.3596H13.0338C12.7713 9.3596 12.5585 9.14681 12.5585 8.88431ZM13.0338 10.409C12.7713 10.409 12.5585 10.6218 12.5585 10.8843C12.5585 11.1468 12.7713 11.3596 13.0338 11.3596H13.9844C14.2469 11.3596 14.4597 11.1468 14.4597 10.8843C14.4597 10.6218 14.2469 10.409 13.9844 10.409H13.0338ZM5.69969 19.0118L5.70354 19.0118L5.70739 19.0118H5.69969Z" fill="#484848"/>
<rect x="11.0585" y="6.909" width="5" height="9" rx="1.5" stroke="#484848"/>
</svg>
